<svg id="cancel" xmlns="http://www.w3.org/2000/svg" width="60" height="60" viewBox="0 0 60 60">
  <circle id="Ellipse_21" data-name="Ellipse 21" cx="30" cy="30" r="30" transform="translate(0 0)" fill="#f15249"/>
  <path id="Path_2089" data-name="Path 2089" d="M147.2,174.025l16.183,16.183a29.845,29.845,0,0,0,26.12-25.931L173.225,148Z" transform="translate(-129.787 -130.492)" fill="#ad0e0e"/>
  <path id="Path_2090" data-name="Path 2090" d="M154.585,146.309a3.543,3.543,0,0,1,0,4.921l-2.65,2.65a3.543,3.543,0,0,1-4.921,0l-20.82-20.82a3.543,3.543,0,0,1,0-4.921l2.744-2.744a3.543,3.543,0,0,1,4.921,0Z" transform="translate(-110.389 -109.684)" fill="#fff"/>
  <path id="Path_2091" data-name="Path 2091" d="M223.666,216,216,223.666l11.073,10.978a3.543,3.543,0,0,0,4.921,0l2.744-2.744a3.543,3.543,0,0,0,0-4.921Z" transform="translate(-190.448 -190.448)" fill="#d6d6d6"/>
  <path id="Path_2092" data-name="Path 2092" d="M147.014,126.194a3.543,3.543,0,0,1,4.921,0l2.744,2.744a3.543,3.543,0,0,1,0,4.921l-20.915,20.726a3.543,3.543,0,0,1-4.921,0l-2.65-2.65a3.543,3.543,0,0,1,0-4.921Z" transform="translate(-110.389 -110.389)" fill="#fff"/>
</svg>
