<svg xmlns="http://www.w3.org/2000/svg" width="73.615" height="61.052" viewBox="0 0 73.615 61.052">
  <g id="Group_161" data-name="Group 161" transform="translate(-165 -283)">
    <g id="checked" transform="translate(165 283)">
      <circle id="Ellipse_20" data-name="Ellipse 20" cx="30" cy="30" r="30" transform="translate(0 0)" fill="#32ba7c"/>
      <path id="Path_2086" data-name="Path 2086" d="M188.8,177.552l15.426,15.426a29.98,29.98,0,0,0,22.24-28.959v-.852L214.352,152Z" transform="translate(-166.466 -134.019)" fill="#0aa06e"/>
      <g id="Group_148" data-name="Group 148" transform="translate(10.079 14.811)">
        <path id="Path_2087" data-name="Path 2087" d="M105.878,212.707a3.543,3.543,0,0,1,0,4.921l-2.744,2.744a3.543,3.543,0,0,1-4.921,0L86.194,208.259a3.543,3.543,0,0,1,0-4.921l2.744-2.744a3.543,3.543,0,0,1,4.921,0Z" transform="translate(-85.2 -190.799)" fill="#fff"/>
        <path id="Path_2088" data-name="Path 2088" d="M186.214,126.194a3.543,3.543,0,0,1,4.921,0l2.744,2.744a3.543,3.543,0,0,1,0,4.921l-20.82,20.726a3.543,3.543,0,0,1-4.921,0l-2.744-2.744a3.543,3.543,0,0,1,0-4.921Z" transform="translate(-155.031 -125.2)" fill="#fff"/>
      </g>
    </g>
    <g id="document" transform="translate(-24.585 36.452)">
      <g id="Ellipse_23" data-name="Ellipse 23" transform="translate(237.2 281.6)" fill="#db7539" stroke="#fff" stroke-width="1">
        <circle cx="12.5" cy="12.5" r="12.5" stroke="none"/>
        <circle cx="12.5" cy="12.5" r="13" fill="none"/>
      </g>
      <path id="Path_2105" data-name="Path 2105" d="M345.2,281.6a12.5,12.5,0,1,1,0,25" transform="translate(-95.5)" fill="#bc561b"/>
      <path id="Path_2106" data-name="Path 2106" d="M269.2,285.481a12.505,12.505,0,0,1,17.685,17.685" transform="translate(-28.296 -0.177)" fill="#ce6629"/>
      <g id="Group_159" data-name="Group 159" transform="translate(248.033 287.711)">
        <path id="Path_2107" data-name="Path 2107" d="M334.133,344.215a1.66,1.66,0,0,1-1.667,1.667h0a1.66,1.66,0,0,1-1.667-1.667v-8.148a1.66,1.66,0,0,1,1.667-1.667h0a1.66,1.66,0,0,1,1.667,1.667Z" transform="translate(-330.8 -334.4)" fill="#9b400b"/>
        <circle id="Ellipse_24" data-name="Ellipse 24" cx="1.019" cy="1.019" r="1.019" transform="translate(0.648 13.056)" fill="#9b400b"/>
      </g>
      <g id="Group_160" data-name="Group 160" transform="translate(248.033 286.6)">
        <path id="Path_2108" data-name="Path 2108" d="M334.133,334.615a1.66,1.66,0,0,1-1.667,1.667h0a1.66,1.66,0,0,1-1.667-1.667v-8.148a1.66,1.66,0,0,1,1.667-1.667h0a1.66,1.66,0,0,1,1.667,1.667Z" transform="translate(-330.8 -324.8)" fill="#fff"/>
        <circle id="Ellipse_25" data-name="Ellipse 25" cx="1.019" cy="1.019" r="1.019" transform="translate(0.648 13.056)" fill="#fff"/>
      </g>
    </g>
  </g>
</svg>
